1.5542	3.99383	silence
5.64091	6.73379	silence
6.8019	8.0341	silence
8.10222	11.0991	silence
15.579	19.737	silence
21.1518	24.706	silence
24.7277	28.5141	silence
28.5358	32.6008	silence
34.2943	36.9197	silence
37.4522	39.8919	silence
