0.625397	3.80807	silence
3.96907	7.98766	silence
9.63474	10.7276	silence
12.3283	13.9784	silence
16.4614	17.7865	silence
18.6441	23.6379	silence
24.3098	25.4026	silence
27.9321	34.6442	silence
35.4089	42.3996	silence
42.9786	51.409	silence
