0.764717	1.95048	silence
10.0527	11.4242	silence
13.1642	14.3499	silence
14.3252	16.254	silence
17.6688	19.8763	silence
22.0806	23.7308	silence
25.1921	26.9351	silence
27.8392	29.5358	silence
30.3934	33.5761	silence
