-0.0247619	1.06812	silence
1.0898	12.1208	silence
12.0961	86.982	silence
87.0036	99.66	silence
101.307	108.855	silence
109.248	134.583	silence
134.93	136.812	silence
138.505	141.92	silence
142.453	144.66	silence
146.632	175.868	silence
175.89	177.911	silence
178.258	181.952	silence
186.431	187.757	silence
