1.04336	4.17959	silence
4.85143	6.50159	silence
6.52327	8.35918	silence
9.91338	13.8855	silence
15.3933	18.0187	silence
19.898	21.223	silence
21.2912	34.7835	silence
35.2696	41.5637	silence
41.6783	44.6288	silence
44.8362	54.2883	silence
54.2635	129.707	silence
129.914	134.026	silence
