1.78639	7.89478	silence
8.1951	9.24154	silence
9.21678	10.5883	silence
10.61	13.1889	silence
13.3035	14.3964	silence
14.6038	15.6967	silence
19.0156	20.7586	silence
21.5698	23.0342	silence
28.3965	30.0931	silence
31.1364	33.0652	silence
35.5946	39.1953	silence
39.3563	42.2603	silence
42.5606	46.7185	silence
48.3192	49.5978	silence
54.4493	65.9447	silence
66.8023	70.0778	silence
70.4246	71.8425	silence
71.9571	74.3503	silence
74.5113	78.7156	silence
78.7838	84.0562	silence
84.0779	85.5888	silence
85.6104	86.8426	silence
