22.6844	23.8701	silence
24.5884	26.7494	silence
32.8547	34.2262	silence
36.9878	39.2882	silence
41.3532	42.9105	silence
52.0344	53.6381	silence
54.3564	55.3564	silence
58.861	63.8084	silence
64.8982	69.9385	silence
