2.57587	4.64399	silence
4.66567	6.59447	silence
7.82358	8.87002	silence
10.0063	12.2137	silence
12.3283	13.4676	silence
14.7431	17.0434	silence
19.062	21.4088	silence
25.2385	27.6317	silence
30.7185	31.8113	silence
31.8795	35.8516	silence
37.4522	41.3315	silence
42.3284	45.2789	silence
47.1582	48.7619	silence
50.409	52.0127	silence
54.6815	56.6102	silence
56.7712	58.2821	silence
60.5329	63.5762	silence
64.341	65.9447	silence
66.2914	67.988	silence
67.9633	70.8209	silence
70.889	71.9819	silence
72.2822	85.2637	silence
85.2854	88.4216	silence
88.7683	95.8984	silence
