5.13007	6.45515	silence
7.21986	8.77714	silence
9.26322	10.3561	silence
10.7493	12.0744	silence
12.2354	13.3283	silence
15.4862	25.6813	silence
25.8423	28.0033	silence
28.0249	31.4863	silence
31.5079	39.381	silence
40.378	60.0932	silence
60.2078	62.1366	silence
62.9013	70.4029	silence
72.3286	79.18	silence
79.5732	82.4773	silence
82.499	87.307	silence
87.3287	95.2018	silence
96.4309	106.022	silence
106.044	107.09	silence
107.159	111.316	silence
111.524	112.942	silence
113.753	114.892	silence
114.96	117.493	silence
117.608	123.762	silence
