2.39011	4.55111	silence
4.57279	7.43039	silence
7.45206	8.87002	silence
9.30966	15.8824	silence
15.9506	21.8268	silence
21.9878	24.381	silence
24.4491	25.4491	silence
25.7958	33.2045	silence
33.2262	51.6876	silence
52.0808	53.8703	silence
54.0777	56.1923	silence
57.0499	68.1273	silence
68.149	90.5114	silence
90.8117	104.211	silence
104.511	123.205	silence
123.273	124.552	silence
124.574	125.806	silence
