6.66259	8.08054	silence
10.3778	12.5388	silence
12.8855	14.675	silence
19.7122	20.9444	silence
22.1735	23.4986	silence
24.1704	25.4491	silence
25.6101	27.6782	silence
37.7773	39.381	silence
54.3099	55.4957	silence
56.214	57.3997	silence
57.4214	59.3038	silence
66.3843	68.5453	silence
72.9788	74.1645	silence
