4.06195	7.05887	silence
16.1363	17.8794	silence
19.2014	20.898	silence
35.4553	40.8671	silence
41.3068	43.4213	silence
44.6504	45.7433	silence
58.118	59.2109	silence
60.3471	61.5793	silence
68.3812	69.6599	silence
71.6785	73.2822	silence
74.1398	76.0686	silence
78.2265	80.016	silence
