1.69351	3.25079	silence
4.52635	6.68735	silence
11.5852	12.6317	silence
13.7679	15.418	silence
17.6224	21.1766	silence
22.6844	24.0559	silence
28.4429	32.09	silence
33.0869	35.2015	silence
36.059	37.4306	silence
37.7309	39.5668	silence
39.542	40.9136	silence
52.0344	56.1459	silence
58.3966	62.0902	silence
67.4989	71.4246	silence
71.4463	74.7683	silence
