3.59755	5.52635	silence
10.8422	12.6781	silence
12.932	14.6286	silence
20.7339	22.1983	silence
24.7741	26.0992	silence
27.189	30.1859	silence
30.2076	32.0435	silence
32.1581	35.4801	silence
42.282	47.0901	silence
50.6412	64.923	silence
