5.68735	7.8019	silence
14.0001	15.3252	silence
17.3438	19.0868	silence
21.8949	28.9785	silence
30.4863	33.2974	silence
34.6659	38.2665	silence
39.0312	40.6349	silence
42.7	44.6752	silence
48.3192	49.6443	silence
51.3378	53.4523	silence
54.7743	56.0065	silence
57.8858	60.9292	silence
64.8518	66.4555	silence
71.6785	73.0035	silence
81.0593	83.0346	silence
89.9758	94.273	silence
