5.82667	14.4428	silence
17.5295	20.3407	silence
21.3376	24.2881	silence
25.3314	30.0931	silence
31.1829	55.3099	silence
59.7898	79.0407	silence
81.7559	86.564	silence
87.5145	88.6073	silence
89.7436	91.0222	silence
96.1523	98.8241	silence
100.564	102.354	silence
105.626	107.926	silence
110.502	123.019	silence
124.666	130.125	silence
139.62	141.549	silence
142.639	150.326	silence
151.834	157.338	silence
158.057	160.264	silence
160.518	162.029	silence
