-0.0247619	2.69351	silence
2.76163	4.36535	silence
8.28798	12.1673	silence
13.0249	18.576	silence
19.0156	20.1549	silence
20.1766	21.8268	silence
22.3128	23.545	silence
24.3562	25.867	silence
28.4893	30.929	silence
37.4058	38.9166	silence
41.8176	51.5483	silence
