1.69351	5.71211	silence
7.91646	9.33442	silence
12.4676	13.5605	silence
23.0094	24.5203	silence
27.3283	28.4677	silence
36.3377	38.1272	silence
38.1024	39.3346	silence
39.8671	41.378	silence
43.1179	45.604	silence
48.1334	50.4337	silence
51.7557	54.1489	silence
54.1242	57.6784	silence
